…
  homicide %>% 
  group_by(city_state) %>% 
  summarize(number_of_homicides = n())
unsolved_homicide = 
  homicide %>%
  filter(disposition != "Closed by arrest") %>% 
  group_by(city_state) %>% 
  summarize(number_of_unsolved_homicides = n())
total_unsolved_homicide = 
  left_join(total_homicide, unsolved_homicide) %>% 
  replace(is.na(.), 0)
total_unsolved_homicide
```

    ## # A tibble: 51 x 3
    ##    city_state      number_of_homicides number_of_unsolved_homicides
    ##    <chr>                         <int>                        <int>
    ##  1 Albuquerque, NM                 378                          146
    ##  2 Atlanta, GA                     973                          373
    ##  3 Baltimore, MD                  2827                         1825
    ##  4 Baton Rouge, LA                 424                          196
    ##  5 Birmingham, AL                  800                          347
    ##  6 Boston, MA                      614                          310
    ##  7 Buffalo, NY                     521                          319
    ##  8 Charlotte, NC                   687                          206
    ##  9 Chicago, IL                    5535                         4073
    ## 10 Cincinnati, OH                  694                          309
    ## # ... with 41 more rows
…
## Estimate of the proportion of unsolved homicides and its confidence interval for each city

``` r
unsolved_prop = 
  total_unsolved_homicide %>% 
  filter(city_state != "Tulsa, AL") %>% 
  mutate(result = purrr::map2(.x = number_of_unsolved_homicides, .y = number_of_homicides, ~broom::tidy(prop.test(x = .x, n = .y, alternative = "two.sided", conf.level = 0.95, correct = TRUE)))) %>% 
  unnest(result) %>% 
  select(city_state, estimate, conf.low, conf.high) %>% 
  mutate(confidence_interval = paste("(", round(conf.low, 4), ",", round(conf.high, 4), ")"))

unsolved_prop
```

    ## # A tibble: 50 x 5
    ##    city_state      estimate conf.low conf.high confidence_interval
    ##    <chr>              <dbl>    <dbl>     <dbl> <chr>              
    ##  1 Albuquerque, NM    0.386    0.337     0.438 ( 0.3373 , 0.4376 )
    ##  2 Atlanta, GA        0.383    0.353     0.415 ( 0.3528 , 0.4148 )
    ##  3 Baltimore, MD      0.646    0.628     0.663 ( 0.6276 , 0.6632 )
    ##  4 Baton Rouge, LA    0.462    0.414     0.511 ( 0.4142 , 0.511 ) 
    ##  5 Birmingham, AL     0.434    0.399     0.469 ( 0.3992 , 0.469 ) 
    ##  6 Boston, MA         0.505    0.465     0.545 ( 0.4646 , 0.5451 )
    ##  7 Buffalo, NY        0.612    0.569     0.654 ( 0.5688 , 0.6541 )
    ##  8 Charlotte, NC      0.300    0.266     0.336 ( 0.2661 , 0.3359 )
    ##  9 Chicago, IL        0.736    0.724     0.747 ( 0.724 , 0.7474 ) 
    ## 10 Cincinnati, OH     0.445    0.408     0.483 ( 0.408 , 0.4831 ) 
    ## # ... with 40 more rows
…
``` r
output = vector("list", 5000)

for (i in 1:5000) {
  output[[i]] = 
    broom::tidy(t.test( x = rnorm(n = 30, mean = 0, sd = 5), alternative = "two.sided", mu = 0, paired = FALSE, conf.level = 0.95)) %>% 
    select(estimate, p.value) %>% 
    rename(mu_hat = estimate)
}

sim_0 = bind_rows(output)
sim_0
```

    ## # A tibble: 5,000 x 2
    ##    mu_hat p.value
    ##     <dbl>   <dbl>
    ##  1  0.412  0.629 
    ##  2  0.664  0.368 
    ##  3  0.551  0.534 
    ##  4  0.567  0.487 
    ##  5 -1.65   0.0599
    ##  6  1.19   0.229 
    ##  7  0.334  0.738 
    ##  8 -1.19   0.209 
    ##  9  0.122  0.887 
    ## 10  0.684  0.472 
    ## # ... with 4,990 more rows
…
